10^-5,,10^-3,,10^-1,
X,Y,X,Y,X,Y
0.0046022353714660486,3.036734693877719,0.006903353057199205,6.857142857142847,0.0041091387245233355,6.857142857142847
0.012656147271531887,9.795918367346928,0.013313609467455613,12.342857142857142,0.009368836291913207,14.497959183673458
0.021203155818540494,17.53469387755088,0.018244575936883625,17.828571428571422,0.016600920447074285,24.097959183673467
0.030078895463510842,25.469387755102034,0.025805391190006563,25.8612244897959,0.023833004602235364,34.677551020408146
0.03599605522682445,31.346938775510196,0.030736357659434575,32.71836734693876,0.03205128205128205,46.43265306122447
0.04618671926364233,40.16326530612244,0.03731097961867193,40.35918367346939,0.03763971071663379,54.66122448979591
0.054404996712689016,46.0408163265306,0.044543063773833005,48.979591836734684,0.044871794871794865,64.84897959183672
,,0.05243261012491782,55.44489795918366,0.05046022353714662,73.27346938775509
,,0.06032215647600263,62.30204081632651,0.06065088757396449,84.04897959183671
,,,,0.06623931623931624,90.5142857142857
